{
  "users": [
    {
      "id": 1,
      "role": "administrator",
      "name": "Juan Perez",
      "username": "admin",
      "password": "admin"
    },
    {
      "id": 2,
      "role": "employee",
      "name": "John Doe",
      "username": "employee",
      "password": "employee"
    }
  ],
  "rooms": [
    {
      "id": 1,
      "detail": "Single room",
      "type": "simple",
      "status": "reserved",
      "price": 100
    },
    {
      "id": 2,
      "detail": "Single room",
      "type": "simple",
      "status": "occupied",
      "price": 100
    },
    {
      "id": 3,
      "detail": "Single room",
      "type": "simple",
      "status": "vacancy",
      "price": 100
    },
    {
      "id": 4,
      "detail": "Single room",
      "type": "simple",
      "status": "vacancy",
      "price": 100
    },
    {
      "id": 5,
      "detail": "Single room",
      "type": "simple",
      "status": "reserved",
      "price": 100
    },
    {
      "id": 6,
      "detail": "Single room",
      "type": "simple",
      "status": "vacancy",
      "price": 100
    },
    {
      "id": 7,
      "detail": "Double room",
      "type": "double",
      "status": "vacancy",
      "price": 100
    },
    {
      "id": 8,
      "detail": "Double room",
      "type": "double",
      "status": "vacancy",
      "price": 100
    },
    {
      "id": 9,
      "detail": "Double room",
      "type": "double",
      "status": "occupied",
      "price": 100
    },
    {
      "id": 10,
      "detail": "Double room",
      "type": "double",
      "status": "occupied",
      "price": 100
    }
  ],
  "packages": [
    {
      "name": "Promotion",
      "rooms": "suit",
      "price": "800",
      "expiration_date": "2022-12-31",
      "services": "breackfast,dinner",
      "description": "Christmas package",
      "creation_date": "2022-11-8",
      "id": 1
    },
    {
      "name": "23d3223",
      "rooms": "simple",
      "services": "dinner,pool",
      "price": "122222",
      "expiration_date": "2022-12-22",
      "description": "Nueva descripcion",
      "creation_date": "2022-11-14",
      "id": 3
    },
    {
      "name": "nuevo paquete",
      "rooms": "double",
      "price": "232",
      "expiration_date": "2022-12-23",
      "services": "breackfast,pool",
      "description": "test description",
      "creation_date": "2022-11-13",
      "id": 4
    }
  ],
  "reservations": [
    {
      "id": 1,
      "room": 1,
      "package": 0,
      "start_date": "2001/12/01",
      "end_date": "2001/12/03",
      "payment_type": "tarjet",
      "payment_ini": 20,
      "status": "pending",
      "total_amount": 200,
      "customer": "Diego Quisbert",
      "dni": "262664589",
      "phone": "866-545447",
      "services": [
        {
          "descrip": "breakfast",
          "price": 30
        },
        {
          "descrip": "check-out",
          "price": 20
        }
      ]
    },
    {
      "start_date": "2022-12-09",
      "end_date": "2022-12-15",
      "customer": "Jane Doe",
      "dni": "888888",
      "phone": "475547747",
      "services": "Breackfast,Dinner",
      "payment_ini": "200",
      "payment_type": "Card",
      "total_amount": 625,
      "room": "0",
      "package": "1",
      "status": "Payment",
      "id": 2
    },
    {
      "rooms": "double",
      "start_date": "2022-12-11",
      "end_date": "2022-12-30",
      "customer": "Juan Ramirez",
      "dni": "788888",
      "phone": "6687887",
      "services": "Breackfast,Dinner,Lunch,Pool,Spa,Vip",
      "payment_ini": "500",
      "payment_type": "Card",
      "total_amount": "800",
      "room": "0",
      "package": "1",
      "status": "pending",
      "id": 3
    },
    {
      "rooms": "double",
      "start_date": "2022-12-09",
      "end_date": "2022-12-23",
      "customer": "Diego Quisbert",
      "dni": "8254bc",
      "phone": "254152325",
      "services": "Breackfast,Dinner,Pool,Vip",
      "payment_ini": "125",
      "payment_type": "Card",
      "total_amount": 4300,
      "room": "0",
      "package": "2",
      "status": "Payment",
      "id": 4
    },
    {
      "rooms": "suit",
      "start_date": "2022-12-09",
      "end_date": "2022-12-13",
      "customer": "Diego Quisbert",
      "dni": "8254bc",
      "phone": "69257918",
      "services": "Breackfast,Lunch,Pool",
      "payment_ini": "256",
      "payment_type": "Effective",
      "total_amount": 2763,
      "room": "0",
      "package": "3",
      "status": "Payment",
      "id": 5
    },
    {
      "rooms": "suit",
      "start_date": "2022-12-09",
      "end_date": "2022-12-15",
      "customer": "Diego Quisbert 3",
      "dni": "13423423D3",
      "phone": "66595959",
      "services": "Breackfast,Dinner,Lunch,Pool,Vip",
      "payment_ini": "2516",
      "payment_type": "Card",
      "total_amount": "95936",
      "room": "0",
      "package": "2",
      "status": "pending",
      "id": 6
    },
    {
      "rooms": "double",
      "start_date": "2022-12-09",
      "end_date": "2022-12-16",
      "customer": "",
      "dni": "",
      "phone": "",
      "payment_ini": "",
      "payment_type": "Effective",
      "total_amount": "1254",
      "services": "",
      "room": "0",
      "package": "1",
      "status": "pending",
      "id": 7
    }
  ],
  "claims": [
    {
      "id": 1,
      "reservation": 1,
      "comment": "The room service was so slow, you need to be faster",
      "status": "read"
    },
    {
      "name": "nueva queja",
      "reservation": "23",
      "comment": "edaedaed",
      "status": "read",
      "id": 2
    }
  ]
}